# PHYS OUTPUT VOL (01-00x)
01-001 MASTER VOL

# PHYS OUTPUT FX1 (01-01x)
01-011 MASTER RVRB

# VIRT OUTPUT VOL (02-00x)
02-001 SPKR VOL

# PHYS INPUT VOL (03-00x)
# 03-001 AUX1 VOL
# 03-002 AUX2 VOL
03-003 MIC1 VOL
03-004 MIC2 VOL
03-005 MIC3 VOL
# 03-006 MIC4 VOL
03-007 GUITAR VOL

# PHYS INPUT FX1 (03-01x)
# 03-011 AUX1 BST
# 03-012 AUX2 BST
03-013 MIC1 BST
03-014 MIC2 BST
03-015 MIC3 BST
# 03-016 MIC4 BST
03-017 GUITAR AMP

# VIRT INPUT VOL (04-00x)
04-001 PC INT VOL

# VIRT INPUT FX1 (04-01x)
# 04-011 PC INT BST